** Drc report for /home/francois/GITLAB/diy/diy_ttlcmos_sondelogique/sondelogique/sondelogique.kicad_pcb **
** Created on 2021-10-21 17:08:40 **

** Found 0 DRC errors **

** Found 0 unconnected pads **

** End of Report **
