M48
; DRILL file {KiCad 5.99.0+really5.1.10+dfsg1-1+b1} date Thu Oct 21 17:22:42 2021
; FORMAT={-:-/ absolute / metric / decimal}
; #@! TF.CreationDate,2021-10-21T17:22:42+02:00
; #@! TF.GenerationSoftware,Kicad,Pcbnew,5.99.0+really5.1.10+dfsg1-1+b1
; #@! TF.FileFunction,Plated,1,2,PTH
FMAT,2
METRIC
T1C0.400
T2C0.600
T3C0.750
T4C0.800
T5C0.900
T6C1.000
T7C1.200
%
G90
G05
T1
X64.135Y-59.944
X64.135Y-59.944
X67.31Y-34.036
X67.945Y-48.895
X73.279Y-39.878
X78.359Y-61.468
X78.867Y-53.34
X81.534Y-53.721
X81.788Y-50.419
X81.915Y-56.388
X82.042Y-61.468
X83.947Y-36.449
X85.254Y-50.964
X86.995Y-57.023
X90.297Y-51.689
X96.52Y-43.307
X97.409Y-57.912
X98.679Y-39.751
X98.806Y-53.848
X99.568Y-51.435
X102.489Y-54.991
X103.378Y-41.275
X104.267Y-34.544
X104.521Y-59.817
X105.156Y-43.561
X106.553Y-54.991
X106.68Y-38.608
X107.696Y-33.782
X107.696Y-38.608
X108.077Y-42.037
X108.839Y-33.782
X108.839Y-38.608
X110.871Y-36.576
X112.395Y-38.354
X114.3Y-36.068
X120.269Y-41.275
X122.047Y-37.846
X122.618Y-42.735
X122.809Y-51.689
X123.571Y-30.988
X123.939Y-35.276
X124.333Y-36.195
T2
X120.428Y-32.258
X122.428Y-32.258
T3
X78.486Y-31.877
X78.486Y-34.417
X79.756Y-33.157
X104.902Y-58.283
X106.172Y-33.02
X106.172Y-34.29
X106.172Y-35.56
X106.172Y-57.023
X106.172Y-59.563
X110.744Y-40.005
X110.744Y-41.275
X110.744Y-42.545
X128.27Y-32.893
X128.27Y-34.163
X128.27Y-35.433
T4
X84.074Y-53.848
X84.074Y-56.388
X84.074Y-58.928
X84.074Y-61.468
X91.694Y-53.848
X91.694Y-56.388
X91.694Y-58.928
X91.694Y-61.468
X93.472Y-33.655
X93.472Y-36.195
X93.472Y-38.735
X93.472Y-41.275
X101.092Y-33.655
X101.092Y-36.195
X101.092Y-38.735
X101.092Y-41.275
X115.864Y-38.735
X118.364Y-38.735
T5
X65.659Y-52.197
X65.659Y-62.357
X66.294Y-47.117
X68.834Y-47.117
X69.85Y-52.197
X69.85Y-62.357
X76.581Y-48.895
X76.581Y-51.435
X106.68Y-50.8
X106.68Y-53.34
X112.522Y-33.782
X115.062Y-33.782
X128.524Y-40.386
X131.064Y-40.386
T6
X61.595Y-55.88
X61.595Y-62.23
X61.976Y-33.274
X73.406Y-55.626
X73.406Y-58.166
X73.406Y-60.706
T7
X61.849Y-37.084
X61.849Y-52.324
X83.947Y-34.163
X83.947Y-49.403
X88.265Y-34.163
X88.265Y-49.403
X95.504Y-46.355
X95.504Y-61.595
X99.822Y-46.355
X99.822Y-61.595
X113.792Y-46.228
X113.792Y-61.468
X118.364Y-46.228
X118.364Y-61.468
X122.936Y-46.228
X122.936Y-61.468
X128.524Y-46.101
X128.524Y-61.341
X132.969Y-46.101
X132.969Y-61.341
T0
M30
